<?xml version="1.0" encoding="utf-8"?>
<!-- Generator: Adobe Illustrator 16.0.0, SVG Export Plug-In . SVG Version: 6.00 Build 0)  -->
<!DOCTYPE svg PUBLIC "-//W3C//DTD SVG 1.1//EN" "http://www.w3.org/Graphics/SVG/1.1/DTD/svg11.dtd">
<svg version="1.1" id="Layer_1" xmlns="http://www.w3.org/2000/svg" xmlns:xlink="http://www.w3.org/1999/xlink" x="0px" y="0px"
	 width="130px" height="50px" viewBox="0 0 130 50" enable-background="new 0 0 130 50" xml:space="preserve">
<g>
	
		<rect x="4.25" y="4.25" transform="matrix(0.7071 -0.7071 0.7071 0.7071 -6.0103 14.5104)" fill="#ED7423" width="20.521" height="20.521"/>
	<polygon fill="#FFFFFF" points="3.627,14.51 14.511,3.627 25.394,14.51 	"/>
	<path fill="#55626D" d="M36.997,43.873c-1.924,0-3.848-0.933-4.779-2.148H32.16v7.213h-3.14V29.022h2.941v1.953h0.057
		c0.821-0.963,2.434-2.293,4.865-2.293c4.271,0,7.186,3.198,7.186,7.498C44.069,40.396,41.353,43.873,36.997,43.873 M32.132,33.55
		v5.346c0.763,1.244,2.121,2.489,4.243,2.489c2.715,0,4.384-2.263,4.384-5.12c0-2.801-1.613-5.091-4.384-5.091
		C33.999,31.174,32.923,32.475,32.132,33.55"/>
	<rect x="46.416" y="23.394" fill="#55626D" width="3.168" height="20.14"/>
	<path fill="#55626D" d="M61.577,43.534v-2.063H61.52c-1.017,1.187-2.433,2.403-4.525,2.403c-3.225,0-5.289-1.697-5.289-4.555
		c0-4.157,4.497-4.893,6.647-4.893c1.243,0,2.46,0.339,2.97,0.509v-0.878c0-2.008-1.272-2.971-3.479-2.971
		c-1.924,0-3.367,0.765-4.442,1.558v-2.462c0.906-0.537,2.773-1.499,4.951-1.499c3.96,0,5.998,1.867,5.998,5.913v8.938H61.577z
		 M61.322,36.915c-0.425-0.112-1.357-0.453-2.263-0.453c-1.387,0-4.187,0.368-4.187,2.745c0,1.442,1.329,2.291,2.603,2.291
		c1.271,0,3.027-0.935,3.847-1.866V36.915z"/>
	<path fill="#55626D" d="M76.992,43.534v-2.149h-0.056c-0.905,1.272-2.404,2.488-4.554,2.488c-3.765,0-5.403-2.403-5.403-5.799
		v-9.052h3.14v7.78c0,3.139,0.818,4.497,2.942,4.497c2.263,0,3.31-1.668,3.847-2.688v-9.59h3.141v14.512H76.992z"/>
	<path fill="#55626D" d="M90.003,31.428c-2.319,0-3.394,1.357-4.017,2.461v9.646h-3.167V29.024h2.884v2.32h0.058
		c0.905-1.529,2.404-2.66,4.129-2.66c0.679,0,1.161,0.085,1.697,0.199v2.8C91.106,31.513,90.513,31.428,90.003,31.428"/>
	<path fill="#55626D" d="M102.873,43.534v-2.149h-0.057c-0.904,1.272-2.403,2.488-4.556,2.488c-3.76,0-5.401-2.403-5.401-5.799
		v-9.052h3.14v7.78c0,3.139,0.82,4.497,2.942,4.497c2.263,0,3.31-1.668,3.848-2.688v-9.59h3.139v14.512H102.873z"/>
	<path fill="#55626D" d="M126.889,43.534v-8.769c0-1.812-0.538-3.508-2.518-3.508c-1.839,0-2.83,1.357-3.48,2.461v9.815h-3.139
		v-8.769c0-1.812-0.508-3.508-2.518-3.508c-1.924,0-3.026,1.441-3.451,2.15v10.126h-3.17V29.022h2.915v2.094h0.056
		c0.962-1.359,2.462-2.434,4.64-2.434c1.725,0,3.451,0.793,4.188,2.772h0.056c1.047-1.923,2.914-2.772,4.554-2.772
		c3.678,0,4.979,2.207,4.979,5.262v9.59H126.889z"/>
</g>
</svg>
