<?xml version="1.0" encoding="utf-8"?>
<!-- Generator: Adobe Illustrator 16.0.0, SVG Export Plug-In . SVG Version: 6.00 Build 0)  -->
<!DOCTYPE svg PUBLIC "-//W3C//DTD SVG 1.1//EN" "http://www.w3.org/Graphics/SVG/1.1/DTD/svg11.dtd">
<svg version="1.1" id="Layer_1" xmlns="http://www.w3.org/2000/svg" xmlns:xlink="http://www.w3.org/1999/xlink" x="0px" y="0px"
	 width="30px" height="41px" viewBox="0 0 30 41" enable-background="new 0 0 30 41" xml:space="preserve">
<g>
	<g>
		<polygon fill="#2BB673" points="30,0 8.65,0 0,8.623 0,41 30,41 		"/>
		<polygon fill="#009444" points="8.68,8.601 0,8.624 8.68,0 		"/>
	</g>
	<g>
		<path fill="#FFFFFF" d="M6.602,34.971v-1.654h1.321v1.654H6.602z"/>
		<path fill="#FFFFFF" d="M8.572,34.971l2.185-3l-2.151-3.017h1.586l1.304,1.884l0.096,0.208l0.113-0.208l1.299-1.884h1.592
			l-2.162,3.017l2.196,3h-1.592l-1.344-1.873l-0.102-0.196l-0.096,0.196l-1.327,1.873H8.572z"/>
		<path fill="#FFFFFF" d="M15.358,33.58v-6.992h1.547v6.46c0,0.22,0.055,0.392,0.164,0.516c0.109,0.123,0.264,0.185,0.463,0.185
			c0.094,0,0.195-0.017,0.307-0.049c0.111-0.031,0.217-0.068,0.314-0.113l0.209,1.168c-0.207,0.099-0.45,0.176-0.727,0.228
			c-0.276,0.053-0.527,0.079-0.753,0.079c-0.485,0-0.862-0.129-1.127-0.385C15.491,34.419,15.358,34.055,15.358,33.58z"/>
		<path fill="#FFFFFF" d="M18.584,34.171l0.576-0.967c0.37,0.264,0.731,0.462,1.084,0.597c0.354,0.133,0.704,0.2,1.05,0.2
			c0.309,0,0.55-0.059,0.727-0.176c0.177-0.116,0.266-0.282,0.266-0.497c0-0.214-0.104-0.372-0.311-0.474
			c-0.205-0.103-0.544-0.217-1.013-0.346c-0.392-0.108-0.727-0.213-1.007-0.312c-0.28-0.102-0.506-0.215-0.676-0.342
			c-0.171-0.128-0.295-0.275-0.372-0.441c-0.079-0.165-0.117-0.362-0.117-0.593c0-0.305,0.059-0.579,0.179-0.824
			c0.119-0.245,0.286-0.452,0.505-0.624c0.216-0.172,0.47-0.303,0.762-0.396c0.29-0.093,0.606-0.14,0.946-0.14
			c0.454,0,0.879,0.065,1.276,0.194s0.761,0.338,1.092,0.626l-0.627,0.933c-0.309-0.229-0.605-0.398-0.894-0.509
			c-0.288-0.108-0.574-0.162-0.858-0.162c-0.264,0-0.483,0.054-0.66,0.16c-0.176,0.106-0.264,0.28-0.264,0.521
			c0,0.11,0.021,0.198,0.062,0.266c0.042,0.069,0.109,0.129,0.202,0.186c0.094,0.054,0.216,0.106,0.362,0.156
			c0.149,0.051,0.335,0.104,0.562,0.155c0.416,0.11,0.773,0.219,1.068,0.325c0.296,0.106,0.537,0.23,0.727,0.37
			c0.19,0.139,0.329,0.299,0.418,0.48c0.089,0.18,0.134,0.398,0.134,0.654c0,0.587-0.221,1.049-0.661,1.385
			s-1.036,0.505-1.793,0.505c-0.508,0-1.007-0.081-1.494-0.237C19.349,34.687,18.931,34.462,18.584,34.171z"/>
	</g>
</g>
</svg>
