<?xml version="1.0" encoding="utf-8"?>
<!-- Generator: Adobe Illustrator 16.0.0, SVG Export Plug-In . SVG Version: 6.00 Build 0)  -->
<!DOCTYPE svg PUBLIC "-//W3C//DTD SVG 1.1//EN" "http://www.w3.org/Graphics/SVG/1.1/DTD/svg11.dtd">
<svg version="1.1" id="Layer_1" xmlns="http://www.w3.org/2000/svg" xmlns:xlink="http://www.w3.org/1999/xlink" x="0px" y="0px"
	 width="75px" height="75px" viewBox="0 0 75 75" enable-background="new 0 0 75 75" xml:space="preserve">
<g>
	<path fill="#B2B8BD" d="M43.908,41.082c0.881-0.38,1.818-0.454,2.692-0.284l1.615,0.654c0.004,0,0.004,0.002,0.007,0.002l0,0l0,0
		l0,0l2.306-5.705l0,0l0.006-0.017c-0.031-0.008-0.064-0.015-0.1-0.02l-1.462-0.592c-1.868-1.16-2.69-3.532-1.84-5.638
		c0.36-0.89,0.966-1.603,1.704-2.097l1.606-0.684c0.002,0,0.005-0.004,0.005-0.004l0,0l0,0l-2.406-5.663v0.001v-0.001l0,0
		l-0.008-0.012c-0.024,0.013-0.049,0.028-0.077,0.049l-1.459,0.617c-2.144,0.503-4.399-0.593-5.289-2.688
		c-0.375-0.881-0.454-1.815-0.281-2.69l0.655-1.616c0,0,0.002,0,0.003-0.003h-0.001l0,0l0,0l-5.708-2.306l0,0l-0.015-0.007
		c-0.007,0.034-0.017,0.068-0.021,0.103l-0.592,1.458c-1.161,1.869-3.532,2.689-5.643,1.838c-0.889-0.361-1.604-0.964-2.099-1.703
		l-0.684-1.607c0,0,0,0,0-0.003l0,0l0,0l-5.667,2.404h0.001h-0.001l0,0l-0.015,0.007c0.016,0.026,0.033,0.052,0.049,0.078
		l0.623,1.462c0.5,2.142-0.597,4.394-2.691,5.284c-0.883,0.373-1.818,0.453-2.693,0.28l-1.614-0.655c-0.002,0-0.005,0-0.007-0.004
		l0.002,0.004l0,0h-0.002l-2.304,5.705l0,0L12.5,27.047c0.03,0.004,0.064,0.014,0.098,0.023l1.46,0.59
		c1.87,1.157,2.691,3.528,1.839,5.637c-0.36,0.887-0.963,1.604-1.701,2.1l-1.607,0.68c-0.002,0.002-0.005,0.002-0.006,0.002h0.001
		l0,0l2.404,5.664l0,0h0.001l0,0l0.006,0.017c0.027-0.017,0.053-0.035,0.079-0.049l1.459-0.62c2.142-0.503,4.398,0.597,5.289,2.688
		c0.373,0.88,0.451,1.812,0.281,2.686l-0.653,1.617c0,0.002-0.002,0.002-0.002,0.008l0,0l0,0l0,0l5.708,2.301l0,0l0.015,0.007
		c0.007-0.034,0.015-0.068,0.022-0.1l0.591-1.458c1.16-1.869,3.529-2.693,5.641-1.837c0.89,0.355,1.606,0.962,2.102,1.702
		l0.682,1.604c0,0.002,0,0.002,0,0.005V50.31l0,0l5.669-2.403l0,0l0,0l0,0l0.015-0.007c-0.02-0.024-0.034-0.053-0.052-0.078
		l-0.621-1.46C40.717,44.224,41.813,41.966,43.908,41.082z M34.422,38.237c-3.782,1.602-8.15-0.159-9.756-3.942
		c-1.605-3.779,0.157-8.142,3.941-9.75c3.785-1.604,8.15,0.162,9.756,3.941C39.969,32.267,38.206,36.63,34.422,38.237z"/>
	<path fill="#9E9FA4" d="M62.5,54.939v-3.848h-2.183c-0.183-0.705-0.454-1.371-0.814-1.981l1.54-1.542l-2.725-2.719l-1.531,1.529
		c-0.617-0.37-1.294-0.655-2.012-0.841v-2.169h-3.851v2.169c-0.707,0.183-1.372,0.461-1.988,0.823l-1.535-1.533l-2.723,2.724
		l1.533,1.534c-0.366,0.616-0.647,1.286-0.829,2.006h-2.145v3.848h2.156c0.185,0.707,0.468,1.378,0.834,1.992l-1.53,1.528
		l2.726,2.724l1.541-1.541c0.603,0.355,1.263,0.628,1.961,0.81v2.168h3.85v-2.168c0.707-0.182,1.377-0.463,1.986-0.821l1.538,1.532
		l2.724-2.718l-1.536-1.54c0.361-0.604,0.638-1.263,0.819-1.966H62.5L62.5,54.939z M52.853,55.842c-1.575,0-2.851-1.275-2.851-2.847
		c0-1.57,1.275-2.846,2.851-2.846c1.572,0,2.846,1.275,2.846,2.846C55.697,54.566,54.425,55.842,52.853,55.842z"/>
</g>
</svg>
