<?xml version="1.0" encoding="utf-8"?>
<!-- Generator: Adobe Illustrator 16.0.0, SVG Export Plug-In . SVG Version: 6.00 Build 0)  -->
<!DOCTYPE svg PUBLIC "-//W3C//DTD SVG 1.1//EN" "http://www.w3.org/Graphics/SVG/1.1/DTD/svg11.dtd">
<svg version="1.1" id="Layer_1" xmlns="http://www.w3.org/2000/svg" xmlns:xlink="http://www.w3.org/1999/xlink" x="0px" y="0px"
	 width="75px" height="75px" viewBox="0 0 75 75" enable-background="new 0 0 75 75" xml:space="preserve">
<g>
	<polygon fill="#54616C" points="31.565,35.003 33.527,35.003 33.527,40.896 37.458,40.896 37.458,35.003 39.42,35.003 
		39.42,40.896 43.35,40.896 43.35,35.003 45.312,35.003 45.312,40.896 49.242,40.896 49.242,35.003 51.204,35.003 51.204,33.037 
		47.276,33.037 47.276,15.359 45.312,15.359 45.312,9.468 47.276,9.468 47.276,7.506 35.492,7.506 35.492,9.468 37.458,9.468 
		37.458,15.359 35.492,15.359 35.492,33.037 31.565,33.037 	"/>
	<polygon fill="#B2B8BD" points="31.565,35.003 33.527,35.003 33.527,40.896 37.458,40.896 37.458,37.949 39.42,37.949 
		39.42,40.896 43.35,40.896 43.35,37.949 45.312,37.949 45.312,40.896 49.242,40.896 49.242,35.003 51.204,35.003 51.204,33.037 
		47.276,33.037 47.276,15.359 45.312,15.359 45.312,9.468 47.276,9.468 47.276,7.506 35.492,7.506 35.492,9.468 37.458,9.468 
		37.458,15.359 35.492,15.359 35.492,33.037 31.565,33.037 	"/>
	<polygon fill="#B2B8BD" points="47.276,50.715 47.276,46.788 53.169,46.788 53.169,44.822 29.6,44.822 29.6,46.788 35.492,46.788 
		35.492,50.715 	"/>
	<path fill="#B2B8BD" d="M53.169,58.573v-5.893H33.527c-8.123,0-14.731-6.607-14.731-14.731s6.608-14.731,14.731-14.731v-5.893
		c-11.37,0-20.624,9.253-20.624,20.624s9.254,20.624,20.624,20.624h-19.64V62.5h43.209v-3.927H53.169z"/>
	<rect x="33.495" y="16.468" fill="#B2B8BD" width="1.996" height="7.274"/>
	<rect x="34.227" y="50.715" fill="#B2B8BD" width="14.316" height="1.966"/>
	<g>
		<polygon fill="#9E9FA4" points="31.565,34.973 33.527,34.973 33.527,40.896 35.492,40.896 35.492,34.973 39.372,34.973 
			39.372,40.896 41.367,40.896 41.367,34.973 44.776,34.973 44.776,33.037 41.367,33.037 41.367,15.359 38.422,15.359 44.314,9.468 
			46.071,9.468 46.071,7.5 35.521,7.5 35.521,9.468 37.458,9.468 37.458,15.359 35.492,15.359 35.492,33.037 31.565,33.037 		"/>
		<rect x="45.312" y="34.973" fill="#9E9FA4" width="1.874" height="5.923"/>
		<path fill="#9E9FA4" d="M33.527,23.218v-5.893c-5.829,0-11.092,2.445-14.849,6.349l4.596,3.719
			C25.93,24.814,29.543,23.218,33.527,23.218z"/>
		<path fill="#9E9FA4" d="M53.169,58.573c0,0-1.776,0-4.267,0l4.176-4.912v-0.98h-9.976l4.173-4.912v-0.98H35.491v5.893h-2.887
			v5.893H13.888V62.5H54.15l2.946-3.927H53.169z"/>
	</g>
</g>
</svg>
