<?xml version="1.0" encoding="utf-8"?>
<!-- Generator: Adobe Illustrator 16.0.0, SVG Export Plug-In . SVG Version: 6.00 Build 0)  -->
<!DOCTYPE svg PUBLIC "-//W3C//DTD SVG 1.1//EN" "http://www.w3.org/Graphics/SVG/1.1/DTD/svg11.dtd">
<svg version="1.1" id="Layer_1" xmlns="http://www.w3.org/2000/svg" xmlns:xlink="http://www.w3.org/1999/xlink" x="0px" y="0px"
	 width="308.844px" height="65.322px" viewBox="0 0 308.844 65.322" enable-background="new 0 0 308.844 65.322"
	 xml:space="preserve">
<g>
	<g>
		<defs>
			<polygon id="SVGID_1_" points="19.32,0 0,19.369 19.32,38.737 38.64,19.369 			"/>
		</defs>
		<clipPath id="SVGID_2_">
			<use xlink:href="#SVGID_1_"  overflow="visible"/>
		</clipPath>
		<rect x="-5" y="-5" clip-path="url(#SVGID_2_)" fill="#EC7323" width="48.64" height="48.737"/>
	</g>
	<g>
		<defs>
			<polygon id="SVGID_3_" points="4.83,19.369 19.32,4.842 33.81,19.369 			"/>
		</defs>
		<clipPath id="SVGID_4_">
			<use xlink:href="#SVGID_3_"  overflow="visible"/>
		</clipPath>
		<rect x="-0.17" y="-0.158" clip-path="url(#SVGID_4_)" fill="#FEFEFE" width="38.98" height="24.527"/>
	</g>
	<g>
		<defs>
			<path id="SVGID_5_" d="M49.259,58.562c-2.561,0-5.123-1.245-6.364-2.868h-0.075v9.628h-4.181V38.74h3.917v2.606h0.075
				c1.094-1.285,3.24-3.061,6.478-3.061c5.687,0,9.566,4.269,9.566,10.009C58.675,53.92,55.059,58.562,49.259,58.562 M42.782,44.782
				v7.137c1.015,1.661,2.823,3.321,5.649,3.321c3.616,0,5.837-3.02,5.837-6.834c0-3.738-2.147-6.795-5.837-6.795
				C45.267,41.611,43.835,43.348,42.782,44.782"/>
		</defs>
		<use xlink:href="#SVGID_5_"  overflow="visible" fill-rule="evenodd" clip-rule="evenodd" fill="#55626D"/>
		<clipPath id="SVGID_6_">
			<use xlink:href="#SVGID_5_"  overflow="visible"/>
		</clipPath>
		<rect x="33.639" y="33.286" clip-path="url(#SVGID_6_)" fill="#55626D" width="30.036" height="37.036"/>
	</g>
	<g>
		<defs>
			<rect id="SVGID_7_" x="61.8" y="31.227" width="4.218" height="26.884"/>
		</defs>
		<use xlink:href="#SVGID_7_"  overflow="visible" fill-rule="evenodd" clip-rule="evenodd" fill="#55626D"/>
		<clipPath id="SVGID_8_">
			<use xlink:href="#SVGID_7_"  overflow="visible"/>
		</clipPath>
		<rect x="56.8" y="26.227" clip-path="url(#SVGID_8_)" fill="#55626D" width="14.218" height="36.884"/>
	</g>
	<g>
		<defs>
			<path id="SVGID_9_" d="M81.986,58.11v-2.755H81.91c-1.354,1.584-3.239,3.208-6.026,3.208c-4.292,0-7.042-2.266-7.042-6.079
				c0-5.55,5.989-6.53,8.852-6.53c1.656,0,3.275,0.452,3.955,0.679v-1.172c0-2.681-1.695-3.965-4.632-3.965
				c-2.561,0-4.482,1.02-5.915,2.078v-3.286c1.207-0.717,3.693-2.001,6.592-2.001c5.273,0,7.985,2.492,7.985,7.894v11.93H81.986z
				 M81.647,49.275c-0.566-0.15-1.808-0.606-3.014-0.606c-1.845,0-5.574,0.493-5.574,3.665c0,1.925,1.771,3.058,3.465,3.058
				s4.031-1.246,5.123-2.491V49.275z"/>
		</defs>
		<use xlink:href="#SVGID_9_"  overflow="visible" fill-rule="evenodd" clip-rule="evenodd" fill="#55626D"/>
		<clipPath id="SVGID_10_">
			<use xlink:href="#SVGID_9_"  overflow="visible"/>
		</clipPath>
		<rect x="63.841" y="33.287" clip-path="url(#SVGID_10_)" fill="#55626D" width="26.837" height="30.276"/>
	</g>
	<g>
		<defs>
			<path id="SVGID_11_" d="M102.511,58.11v-2.869h-0.075c-1.205,1.698-3.2,3.321-6.063,3.321c-5.011,0-7.194-3.208-7.194-7.741
				V38.74h4.18v10.384c0,4.19,1.09,6.003,3.917,6.003c3.013,0,4.408-2.227,5.122-3.587v-12.8h4.182v19.37H102.511z"/>
		</defs>
		<use xlink:href="#SVGID_11_"  overflow="visible" fill-rule="evenodd" clip-rule="evenodd" fill="#55626D"/>
		<clipPath id="SVGID_12_">
			<use xlink:href="#SVGID_11_"  overflow="visible"/>
		</clipPath>
		<rect x="84.178" y="33.74" clip-path="url(#SVGID_12_)" fill="#55626D" width="27.401" height="29.822"/>
	</g>
	<g>
		<defs>
			<path id="SVGID_13_" d="M119.833,41.95c-3.089,0-4.519,1.812-5.349,3.285v12.876h-4.216V38.742h3.839v3.096h0.077
				c1.205-2.041,3.201-3.551,5.498-3.551c0.903,0,1.545,0.114,2.259,0.265v3.738C121.302,42.063,120.511,41.95,119.833,41.95"/>
		</defs>
		<use xlink:href="#SVGID_13_"  overflow="visible" fill-rule="evenodd" clip-rule="evenodd" fill="#55626D"/>
		<clipPath id="SVGID_14_">
			<use xlink:href="#SVGID_13_"  overflow="visible"/>
		</clipPath>
		<rect x="105.269" y="33.287" clip-path="url(#SVGID_14_)" fill="#55626D" width="21.673" height="29.824"/>
	</g>
	<g>
		<defs>
			<path id="SVGID_15_" d="M136.969,58.11v-2.869h-0.075c-1.205,1.698-3.201,3.321-6.065,3.321c-5.008,0-7.193-3.208-7.193-7.741
				V38.74h4.181v10.384c0,4.19,1.093,6.003,3.918,6.003c3.013,0,4.406-2.227,5.122-3.587v-12.8h4.18v19.37H136.969z"/>
		</defs>
		<use xlink:href="#SVGID_15_"  overflow="visible" fill-rule="evenodd" clip-rule="evenodd" fill="#55626D"/>
		<clipPath id="SVGID_16_">
			<use xlink:href="#SVGID_15_"  overflow="visible"/>
		</clipPath>
		<rect x="118.635" y="33.74" clip-path="url(#SVGID_16_)" fill="#55626D" width="27.401" height="29.822"/>
	</g>
	<g>
		<defs>
			<path id="SVGID_17_" d="M168.943,58.11V46.406c0-2.419-0.716-4.682-3.352-4.682c-2.448,0-3.768,1.811-4.634,3.284V58.11h-4.179
				V46.406c0-2.419-0.677-4.682-3.352-4.682c-2.562,0-4.03,1.923-4.595,2.869V58.11h-4.219V38.74h3.88v2.795h0.075
				c1.281-1.814,3.277-3.249,6.177-3.249c2.298,0,4.595,1.059,5.575,3.701h0.074c1.394-2.568,3.881-3.701,6.063-3.701
				c4.896,0,6.63,2.945,6.63,7.024v12.8H168.943z"/>
		</defs>
		<use xlink:href="#SVGID_17_"  overflow="visible" fill-rule="evenodd" clip-rule="evenodd" fill="#55626D"/>
		<clipPath id="SVGID_18_">
			<use xlink:href="#SVGID_17_"  overflow="visible"/>
		</clipPath>
		<rect x="139.612" y="33.286" clip-path="url(#SVGID_18_)" fill="#55626D" width="38.474" height="29.824"/>
	</g>
	<g>
		<defs>
			<path id="SVGID_19_" d="M197.689,45.543c-0.226,0.164-0.514,0.279-0.863,0.345c-0.349,0.064-0.719,0.098-1.109,0.098
				c-0.459,0-0.896-0.074-1.31-0.222c-0.415-0.147-0.779-0.374-1.094-0.679s-0.565-0.692-0.75-1.162
				c-0.185-0.47-0.277-1.027-0.277-1.672c0-0.672,0.103-1.244,0.309-1.718c0.205-0.473,0.473-0.858,0.801-1.157
				c0.329-0.298,0.699-0.516,1.11-0.652c0.411-0.138,0.818-0.206,1.223-0.206c0.452,0,0.822,0.024,1.109,0.072
				s0.531,0.109,0.729,0.185l-0.226,0.885c-0.335-0.157-0.846-0.236-1.531-0.236c-0.308,0-0.608,0.05-0.899,0.149
				c-0.291,0.099-0.551,0.261-0.781,0.483s-0.413,0.514-0.549,0.874c-0.137,0.359-0.206,0.801-0.206,1.321
				c0,0.467,0.064,0.876,0.195,1.229s0.31,0.647,0.54,0.885c0.229,0.236,0.5,0.415,0.812,0.534c0.312,0.12,0.652,0.181,1.022,0.181
				c0.335,0,0.626-0.031,0.873-0.093s0.455-0.141,0.626-0.236L197.689,45.543z"/>
		</defs>
		<use xlink:href="#SVGID_19_"  overflow="visible" fill-rule="evenodd" clip-rule="evenodd" fill="#55626D"/>
		<clipPath id="SVGID_20_">
			<use xlink:href="#SVGID_19_"  overflow="visible"/>
		</clipPath>
		<rect x="187.285" y="33.518" clip-path="url(#SVGID_20_)" fill="#55626D" width="15.404" height="17.468"/>
	</g>
	<g>
		<defs>
			<polygon id="SVGID_21_" points="203.976,42.797 204.04,41.696 203.917,41.696 203.459,42.539 202.086,44.586 201.768,44.586 
				200.309,42.539 199.897,41.696 199.785,41.696 199.877,42.786 199.877,45.852 199.004,45.852 199.004,40.451 199.99,40.451 
				201.604,42.827 201.994,43.578 202.42,42.807 203.913,40.451 204.921,40.451 204.921,45.852 203.976,45.852 			"/>
		</defs>
		<use xlink:href="#SVGID_21_"  overflow="visible" fill-rule="evenodd" clip-rule="evenodd" fill="#55626D"/>
		<clipPath id="SVGID_22_">
			<use xlink:href="#SVGID_21_"  overflow="visible"/>
		</clipPath>
		<rect x="194.004" y="35.451" clip-path="url(#SVGID_22_)" fill="#55626D" width="15.917" height="15.4"/>
	</g>
	<g>
		<defs>
			<path id="SVGID_23_" d="M211.116,45.409c-0.24,0.178-0.538,0.32-0.894,0.427c-0.356,0.106-0.744,0.159-1.161,0.159
				c-0.452,0-0.844-0.066-1.176-0.2s-0.604-0.324-0.816-0.571c-0.213-0.247-0.37-0.545-0.473-0.895
				c-0.103-0.35-0.154-0.74-0.154-1.173c0-0.926,0.228-1.634,0.683-2.124s1.104-0.735,1.947-0.735c0.267,0,0.534,0.029,0.801,0.088
				c0.267,0.058,0.507,0.168,0.719,0.329c0.212,0.161,0.385,0.382,0.519,0.663c0.133,0.281,0.2,0.648,0.2,1.101
				c0,0.109-0.003,0.236-0.01,0.381c-0.007,0.144-0.021,0.284-0.042,0.422h-3.853c0.014,0.631,0.165,1.107,0.452,1.43
				s0.777,0.483,1.469,0.483c0.288,0,0.562-0.05,0.822-0.149c0.26-0.1,0.462-0.218,0.606-0.354L211.116,45.409z M210.407,42.601
				c0.014-0.548-0.098-0.936-0.334-1.162c-0.236-0.226-0.566-0.339-0.991-0.339c-0.479,0-0.86,0.113-1.141,0.339
				c-0.281,0.227-0.445,0.614-0.493,1.162H210.407z"/>
		</defs>
		<use xlink:href="#SVGID_23_"  overflow="visible" fill-rule="evenodd" clip-rule="evenodd" fill="#55626D"/>
		<clipPath id="SVGID_24_">
			<use xlink:href="#SVGID_23_"  overflow="visible"/>
		</clipPath>
		<rect x="201.442" y="35.297" clip-path="url(#SVGID_24_)" fill="#55626D" width="14.869" height="15.698"/>
	</g>
	<g>
		<defs>
			<path id="SVGID_25_" d="M215.893,41.254h-1.747l-0.021,0.309c-0.048,0.679-0.104,1.287-0.169,1.825
				c-0.065,0.538-0.159,0.994-0.283,1.368c-0.123,0.374-0.288,0.658-0.493,0.854c-0.205,0.195-0.472,0.293-0.801,0.293
				c-0.15,0-0.284-0.008-0.4-0.024c-0.117-0.018-0.216-0.042-0.298-0.076l0.144-0.846c0.089,0.028,0.188,0.042,0.298,0.042
				c0.165,0,0.312-0.061,0.442-0.182c0.13-0.12,0.243-0.346,0.339-0.676c0.096-0.331,0.175-0.793,0.237-1.386
				c0.061-0.592,0.106-1.359,0.133-2.304h3.565v5.4h-0.945V41.254z"/>
		</defs>
		<use xlink:href="#SVGID_25_"  overflow="visible" fill-rule="evenodd" clip-rule="evenodd" fill="#55626D"/>
		<clipPath id="SVGID_26_">
			<use xlink:href="#SVGID_25_"  overflow="visible"/>
		</clipPath>
		<rect x="206.681" y="35.451" clip-path="url(#SVGID_26_)" fill="#55626D" width="15.157" height="15.451"/>
	</g>
	<g>
		<defs>
			<path id="SVGID_27_" d="M219.591,42.519c0.219-0.034,0.423-0.057,0.611-0.066c0.188-0.011,0.358-0.016,0.509-0.016
				c0.397,0,0.731,0.041,1.001,0.123c0.27,0.083,0.488,0.196,0.652,0.34s0.281,0.313,0.349,0.509
				c0.069,0.195,0.103,0.406,0.103,0.633c0,0.651-0.199,1.126-0.596,1.425c-0.397,0.298-1.044,0.447-1.941,0.447
				c-0.288,0-0.565-0.004-0.832-0.01c-0.267-0.008-0.534-0.021-0.801-0.042v-5.41h0.945V42.519z M219.591,45.049
				c0.285,0.041,0.577,0.062,0.875,0.062c0.488,0,0.831-0.085,1.028-0.257c0.197-0.171,0.295-0.415,0.295-0.73
				c0-0.274-0.097-0.504-0.29-0.688c-0.193-0.186-0.528-0.278-1.003-0.278c-0.129,0-0.273,0.006-0.432,0.016
				c-0.16,0.011-0.318,0.032-0.474,0.067V45.049z M223.813,45.852h0.945v-5.4h-0.945V45.852z"/>
		</defs>
		<use xlink:href="#SVGID_27_"  overflow="visible" fill-rule="evenodd" clip-rule="evenodd" fill="#55626D"/>
		<clipPath id="SVGID_28_">
			<use xlink:href="#SVGID_27_"  overflow="visible"/>
		</clipPath>
		<rect x="213.646" y="35.451" clip-path="url(#SVGID_28_)" fill="#55626D" width="16.112" height="15.462"/>
	</g>
	<g>
		<defs>
			<path id="SVGID_29_" d="M230.954,45.409c-0.24,0.178-0.538,0.32-0.894,0.427c-0.356,0.106-0.744,0.159-1.161,0.159
				c-0.452,0-0.844-0.066-1.176-0.2s-0.604-0.324-0.816-0.571c-0.213-0.247-0.37-0.545-0.473-0.895
				c-0.103-0.35-0.154-0.74-0.154-1.173c0-0.926,0.228-1.634,0.683-2.124s1.104-0.735,1.947-0.735c0.267,0,0.534,0.029,0.801,0.088
				c0.267,0.058,0.507,0.168,0.719,0.329c0.212,0.161,0.385,0.382,0.519,0.663c0.133,0.281,0.2,0.648,0.2,1.101
				c0,0.109-0.003,0.236-0.01,0.381c-0.007,0.144-0.021,0.284-0.042,0.422h-3.853c0.014,0.631,0.165,1.107,0.452,1.43
				s0.777,0.483,1.469,0.483c0.288,0,0.562-0.05,0.822-0.149s0.462-0.218,0.606-0.354L230.954,45.409z M230.245,42.601
				c0.014-0.548-0.098-0.936-0.334-1.162c-0.236-0.226-0.567-0.339-0.991-0.339c-0.479,0-0.86,0.113-1.141,0.339
				c-0.281,0.227-0.445,0.614-0.493,1.162H230.245z"/>
		</defs>
		<use xlink:href="#SVGID_29_"  overflow="visible" fill-rule="evenodd" clip-rule="evenodd" fill="#55626D"/>
		<clipPath id="SVGID_30_">
			<use xlink:href="#SVGID_29_"  overflow="visible"/>
		</clipPath>
		<rect x="221.279" y="35.297" clip-path="url(#SVGID_30_)" fill="#55626D" width="14.869" height="15.698"/>
	</g>
	<g>
		<defs>
			<polygon id="SVGID_31_" points="239.429,42.766 239.572,41.696 239.459,41.696 238.956,42.704 236.429,45.852 235.7,45.852 
				235.7,40.451 236.645,40.451 236.645,43.64 236.572,44.586 236.686,44.586 237.158,43.671 239.634,40.451 240.374,40.451 
				240.374,45.852 239.429,45.852 			"/>
		</defs>
		<use xlink:href="#SVGID_31_"  overflow="visible" fill-rule="evenodd" clip-rule="evenodd" fill="#55626D"/>
		<clipPath id="SVGID_32_">
			<use xlink:href="#SVGID_31_"  overflow="visible"/>
		</clipPath>
		<rect x="230.7" y="35.451" clip-path="url(#SVGID_32_)" fill="#55626D" width="14.674" height="15.4"/>
	</g>
	<g>
		<defs>
			<path id="SVGID_33_" d="M247.441,47.209h-0.647l-0.165-1.357h-4.541l-0.185,1.357h-0.627v-2.16h0.688
				c0.068-0.082,0.155-0.227,0.262-0.432c0.106-0.206,0.211-0.492,0.313-0.859c0.103-0.366,0.194-0.821,0.272-1.362
				c0.079-0.542,0.122-1.19,0.128-1.944h3.626v4.598h0.873V47.209z M245.623,45.049v-3.795h-1.828
				c-0.021,0.309-0.052,0.638-0.093,0.987s-0.097,0.694-0.169,1.033c-0.072,0.34-0.156,0.664-0.252,0.973
				c-0.096,0.309-0.208,0.575-0.339,0.802H245.623z"/>
		</defs>
		<use xlink:href="#SVGID_33_"  overflow="visible" fill-rule="evenodd" clip-rule="evenodd" fill="#55626D"/>
		<clipPath id="SVGID_34_">
			<use xlink:href="#SVGID_33_"  overflow="visible"/>
		</clipPath>
		<rect x="236.278" y="35.451" clip-path="url(#SVGID_34_)" fill="#55626D" width="16.164" height="16.758"/>
	</g>
	<g>
		<defs>
			<path id="SVGID_35_" d="M252.979,45.409c-0.24,0.178-0.538,0.32-0.894,0.427s-0.743,0.159-1.161,0.159
				c-0.452,0-0.844-0.066-1.176-0.2c-0.333-0.134-0.604-0.324-0.816-0.571c-0.213-0.247-0.37-0.545-0.473-0.895
				c-0.103-0.35-0.155-0.74-0.155-1.173c0-0.926,0.228-1.634,0.684-2.124c0.455-0.49,1.104-0.735,1.947-0.735
				c0.267,0,0.534,0.029,0.801,0.088c0.267,0.058,0.507,0.168,0.719,0.329c0.212,0.161,0.385,0.382,0.52,0.663
				c0.133,0.281,0.2,0.648,0.2,1.101c0,0.109-0.003,0.236-0.01,0.381c-0.007,0.144-0.021,0.284-0.042,0.422h-3.853
				c0.014,0.631,0.165,1.107,0.452,1.43s0.777,0.483,1.469,0.483c0.288,0,0.562-0.05,0.822-0.149s0.462-0.218,0.606-0.354
				L252.979,45.409z M252.27,42.601c0.014-0.548-0.098-0.936-0.334-1.162c-0.236-0.226-0.567-0.339-0.991-0.339
				c-0.479,0-0.86,0.113-1.141,0.339c-0.281,0.227-0.445,0.614-0.493,1.162H252.27z"/>
		</defs>
		<use xlink:href="#SVGID_35_"  overflow="visible" fill-rule="evenodd" clip-rule="evenodd" fill="#55626D"/>
		<clipPath id="SVGID_36_">
			<use xlink:href="#SVGID_35_"  overflow="visible"/>
		</clipPath>
		<rect x="243.304" y="35.297" clip-path="url(#SVGID_36_)" fill="#55626D" width="14.87" height="15.698"/>
	</g>
	<g>
		<defs>
			<polygon id="SVGID_37_" points="258.465,42.766 258.608,41.696 258.495,41.696 257.992,42.704 255.465,45.852 254.735,45.852 
				254.735,40.451 255.681,40.451 255.681,43.64 255.608,44.586 255.722,44.586 256.194,43.671 258.67,40.451 259.41,40.451 
				259.41,45.852 258.465,45.852 			"/>
		</defs>
		<use xlink:href="#SVGID_37_"  overflow="visible" fill-rule="evenodd" clip-rule="evenodd" fill="#55626D"/>
		<clipPath id="SVGID_38_">
			<use xlink:href="#SVGID_37_"  overflow="visible"/>
		</clipPath>
		<rect x="249.735" y="35.451" clip-path="url(#SVGID_38_)" fill="#55626D" width="14.674" height="15.4"/>
	</g>
	<g>
		<defs>
			<path id="SVGID_39_" d="M192.604,50.994h4.355v0.905h-3.329v1.954c0.124-0.021,0.276-0.041,0.458-0.062
				c0.181-0.021,0.361-0.031,0.539-0.031c0.384,0,0.749,0.035,1.094,0.104s0.65,0.185,0.915,0.35
				c0.264,0.164,0.474,0.384,0.631,0.658c0.158,0.274,0.236,0.617,0.236,1.028s-0.08,0.767-0.241,1.064
				c-0.161,0.299-0.375,0.545-0.642,0.741c-0.268,0.195-0.579,0.341-0.936,0.437c-0.356,0.096-0.729,0.145-1.12,0.145
				c-0.123,0-0.269-0.002-0.437-0.006c-0.168-0.003-0.341-0.012-0.519-0.025c-0.178-0.014-0.354-0.031-0.529-0.052
				s-0.334-0.048-0.478-0.082V50.994z M194.689,57.382c0.233,0,0.454-0.027,0.663-0.081c0.208-0.054,0.392-0.137,0.549-0.248
				c0.158-0.111,0.283-0.252,0.375-0.421c0.093-0.169,0.139-0.368,0.139-0.598c0-0.297-0.051-0.535-0.154-0.714
				c-0.103-0.18-0.242-0.318-0.416-0.416c-0.175-0.098-0.377-0.162-0.606-0.192c-0.23-0.03-0.468-0.046-0.714-0.046
				c-0.068,0-0.146,0.004-0.231,0.011c-0.086,0.006-0.173,0.013-0.262,0.02s-0.169,0.018-0.241,0.03
				c-0.072,0.014-0.125,0.024-0.16,0.03v2.564c0.048,0.013,0.113,0.023,0.196,0.03c0.082,0.006,0.171,0.013,0.267,0.02
				c0.096,0.007,0.196,0.011,0.298,0.011H194.689z"/>
		</defs>
		<use xlink:href="#SVGID_39_"  overflow="visible" fill-rule="evenodd" clip-rule="evenodd" fill="#55626D"/>
		<clipPath id="SVGID_40_">
			<use xlink:href="#SVGID_39_"  overflow="visible"/>
		</clipPath>
		<rect x="187.604" y="45.994" clip-path="url(#SVGID_40_)" fill="#55626D" width="14.9" height="17.293"/>
	</g>
	<g>
		<defs>
			<path id="SVGID_41_" d="M202.065,53.597h-1.747l-0.021,0.309c-0.048,0.679-0.105,1.287-0.169,1.825
				c-0.065,0.539-0.159,0.995-0.283,1.368c-0.123,0.374-0.288,0.658-0.493,0.854c-0.206,0.196-0.473,0.294-0.801,0.294
				c-0.15,0-0.285-0.009-0.4-0.025c-0.117-0.017-0.216-0.042-0.298-0.076l0.144-0.845c0.089,0.027,0.188,0.041,0.298,0.041
				c0.165,0,0.312-0.061,0.442-0.181c0.13-0.121,0.243-0.347,0.339-0.677c0.096-0.331,0.175-0.793,0.237-1.385
				c0.061-0.593,0.105-1.36,0.133-2.305h3.565v5.4h-0.945V53.597z"/>
		</defs>
		<use xlink:href="#SVGID_41_"  overflow="visible" fill-rule="evenodd" clip-rule="evenodd" fill="#55626D"/>
		<clipPath id="SVGID_42_">
			<use xlink:href="#SVGID_41_"  overflow="visible"/>
		</clipPath>
		<rect x="192.854" y="47.794" clip-path="url(#SVGID_42_)" fill="#55626D" width="15.157" height="15.452"/>
	</g>
	<g>
		<defs>
			<path id="SVGID_43_" d="M204.757,53.134c0.617-0.295,1.38-0.442,2.291-0.442c0.411,0,0.741,0.053,0.991,0.159
				s0.443,0.242,0.581,0.406c0.137,0.165,0.227,0.349,0.272,0.551c0.044,0.202,0.066,0.402,0.066,0.602
				c0,0.377-0.014,0.756-0.041,1.137c-0.028,0.38-0.042,0.794-0.042,1.239c0,0.261,0.012,0.513,0.036,0.756
				c0.024,0.243,0.063,0.468,0.118,0.674h-0.688l-0.257-0.823h-0.103c-0.076,0.104-0.168,0.208-0.278,0.314
				c-0.109,0.105-0.239,0.2-0.39,0.282c-0.151,0.083-0.324,0.151-0.519,0.206c-0.195,0.055-0.419,0.082-0.672,0.082
				c-0.254,0-0.487-0.036-0.699-0.107c-0.212-0.072-0.396-0.174-0.55-0.304c-0.154-0.131-0.275-0.29-0.365-0.479
				c-0.089-0.188-0.133-0.399-0.133-0.633c0-0.309,0.066-0.575,0.2-0.802s0.307-0.412,0.519-0.556
				c0.212-0.144,0.454-0.25,0.725-0.318c0.271-0.069,0.54-0.104,0.806-0.104c0.212,0,0.392,0.004,0.54,0.011
				c0.147,0.007,0.271,0.016,0.37,0.025c0.099,0.011,0.183,0.021,0.251,0.031c0.068,0.01,0.13,0.019,0.185,0.025
				c0.014-0.103,0.024-0.192,0.031-0.268s0.01-0.171,0.01-0.288c0-0.191-0.021-0.353-0.062-0.483c-0.042-0.13-0.108-0.234-0.2-0.313
				c-0.093-0.079-0.218-0.136-0.375-0.17s-0.349-0.051-0.575-0.051c-0.13,0-0.273,0.01-0.432,0.03
				c-0.157,0.021-0.315,0.05-0.472,0.088c-0.158,0.037-0.313,0.084-0.468,0.139c-0.154,0.055-0.292,0.113-0.416,0.175
				L204.757,53.134z M207.972,55.746c-0.054-0.007-0.112-0.017-0.173-0.03s-0.138-0.024-0.229-0.031s-0.2-0.014-0.326-0.021
				c-0.125-0.007-0.28-0.011-0.464-0.011c-0.421,0-0.755,0.076-1.003,0.227c-0.248,0.151-0.372,0.408-0.372,0.771
				c0,0.274,0.097,0.48,0.291,0.617c0.193,0.137,0.443,0.206,0.749,0.206c0.224,0,0.423-0.029,0.596-0.088s0.323-0.13,0.448-0.216
				s0.228-0.182,0.306-0.288c0.078-0.106,0.138-0.211,0.178-0.313V55.746z"/>
		</defs>
		<use xlink:href="#SVGID_43_"  overflow="visible" fill-rule="evenodd" clip-rule="evenodd" fill="#55626D"/>
		<clipPath id="SVGID_44_">
			<use xlink:href="#SVGID_43_"  overflow="visible"/>
		</clipPath>
		<rect x="199.377" y="47.691" clip-path="url(#SVGID_44_)" fill="#55626D" width="14.653" height="15.585"/>
	</g>
	<g>
		<defs>
			<polygon id="SVGID_45_" points="214.27,53.597 211.743,53.597 211.743,58.194 210.797,58.194 210.797,52.794 214.27,52.794 			
				"/>
		</defs>
		<use xlink:href="#SVGID_45_"  overflow="visible" fill-rule="evenodd" clip-rule="evenodd" fill="#55626D"/>
		<clipPath id="SVGID_46_">
			<use xlink:href="#SVGID_45_"  overflow="visible"/>
		</clipPath>
		<rect x="205.797" y="47.794" clip-path="url(#SVGID_46_)" fill="#55626D" width="13.472" height="15.4"/>
	</g>
	<g>
		<defs>
			<path id="SVGID_47_" d="M214.722,55.499c0-0.445,0.058-0.845,0.175-1.198c0.116-0.353,0.288-0.653,0.514-0.899
				c0.226-0.247,0.501-0.436,0.827-0.566c0.325-0.13,0.697-0.195,1.115-0.195c0.438,0,0.822,0.072,1.15,0.216
				c0.329,0.145,0.603,0.345,0.822,0.603c0.219,0.257,0.381,0.559,0.488,0.904c0.106,0.347,0.159,0.726,0.159,1.137
				c0,0.439-0.06,0.833-0.18,1.184c-0.12,0.35-0.291,0.647-0.514,0.895s-0.497,0.436-0.822,0.565
				c-0.326,0.131-0.693,0.195-1.104,0.195c-0.452,0-0.842-0.071-1.171-0.216c-0.329-0.144-0.601-0.343-0.817-0.597
				c-0.215-0.253-0.377-0.554-0.483-0.899C214.775,56.279,214.722,55.904,214.722,55.499 M215.749,55.499
				c0,0.254,0.029,0.503,0.086,0.746c0.057,0.243,0.15,0.461,0.278,0.653c0.128,0.191,0.294,0.346,0.497,0.463
				c0.203,0.116,0.453,0.175,0.75,0.175c1.055,0,1.583-0.679,1.583-2.037c0-0.268-0.028-0.524-0.086-0.771
				c-0.058-0.246-0.149-0.464-0.274-0.652c-0.125-0.189-0.289-0.342-0.492-0.458c-0.204-0.117-0.447-0.175-0.731-0.175
				c-0.527,0-0.928,0.17-1.202,0.509C215.886,54.291,215.749,54.807,215.749,55.499"/>
		</defs>
		<use xlink:href="#SVGID_47_"  overflow="visible" fill-rule="evenodd" clip-rule="evenodd" fill="#55626D"/>
		<clipPath id="SVGID_48_">
			<use xlink:href="#SVGID_47_"  overflow="visible"/>
		</clipPath>
		<rect x="209.722" y="47.64" clip-path="url(#SVGID_48_)" fill="#55626D" width="15.25" height="15.698"/>
	</g>
	<g>
		<defs>
			<path id="SVGID_49_" d="M221.492,52.794h0.637l0.185,0.689h0.092c0.185-0.268,0.425-0.475,0.719-0.622s0.626-0.222,0.997-0.222
				c0.781,0,1.362,0.218,1.746,0.653s0.576,1.13,0.576,2.083c0,0.452-0.063,0.862-0.19,1.229c-0.127,0.366-0.308,0.679-0.544,0.936
				c-0.237,0.257-0.524,0.454-0.863,0.592c-0.339,0.137-0.718,0.205-1.135,0.205c-0.137,0-0.262-0.005-0.375-0.015
				c-0.113-0.011-0.217-0.028-0.313-0.052c-0.096-0.024-0.192-0.052-0.288-0.082c-0.096-0.031-0.195-0.067-0.298-0.108v2.17h-0.945
				V52.794z M223.896,53.442c-0.408,0-0.728,0.103-0.959,0.309s-0.398,0.521-0.5,0.946v2.489c0.156,0.109,0.326,0.195,0.51,0.257
				s0.418,0.093,0.704,0.093c0.551,0,0.983-0.182,1.296-0.545c0.312-0.364,0.469-0.905,0.469-1.626c0-0.582-0.116-1.049-0.347-1.398
				C224.838,53.617,224.447,53.442,223.896,53.442z"/>
		</defs>
		<use xlink:href="#SVGID_49_"  overflow="visible" fill-rule="evenodd" clip-rule="evenodd" fill="#55626D"/>
		<clipPath id="SVGID_50_">
			<use xlink:href="#SVGID_49_"  overflow="visible"/>
		</clipPath>
		<rect x="216.492" y="47.64" clip-path="url(#SVGID_50_)" fill="#55626D" width="14.952" height="17.611"/>
	</g>
	<g>
		<defs>
			<path id="SVGID_51_" d="M227.676,55.499c0-0.445,0.058-0.845,0.175-1.198c0.116-0.353,0.288-0.653,0.513-0.899
				c0.226-0.247,0.501-0.436,0.827-0.566c0.325-0.13,0.697-0.195,1.114-0.195c0.438,0,0.822,0.072,1.151,0.216
				c0.329,0.145,0.603,0.345,0.822,0.603c0.219,0.257,0.382,0.559,0.488,0.904c0.106,0.347,0.159,0.726,0.159,1.137
				c0,0.439-0.06,0.833-0.18,1.184c-0.12,0.35-0.291,0.647-0.514,0.895s-0.497,0.436-0.822,0.565
				c-0.325,0.131-0.693,0.195-1.104,0.195c-0.452,0-0.842-0.071-1.171-0.216c-0.329-0.144-0.601-0.343-0.817-0.597
				c-0.215-0.253-0.376-0.554-0.483-0.899C227.729,56.279,227.676,55.904,227.676,55.499 M228.703,55.499
				c0,0.254,0.029,0.503,0.086,0.746s0.15,0.461,0.279,0.653c0.128,0.191,0.294,0.346,0.497,0.463
				c0.203,0.116,0.453,0.175,0.75,0.175c1.055,0,1.583-0.679,1.583-2.037c0-0.268-0.029-0.524-0.086-0.771
				c-0.058-0.246-0.149-0.464-0.274-0.652c-0.125-0.189-0.289-0.342-0.492-0.458c-0.203-0.117-0.447-0.175-0.73-0.175
				c-0.527,0-0.928,0.17-1.202,0.509C228.84,54.291,228.703,54.807,228.703,55.499"/>
		</defs>
		<use xlink:href="#SVGID_51_"  overflow="visible" fill-rule="evenodd" clip-rule="evenodd" fill="#55626D"/>
		<clipPath id="SVGID_52_">
			<use xlink:href="#SVGID_51_"  overflow="visible"/>
		</clipPath>
		<rect x="222.676" y="47.64" clip-path="url(#SVGID_52_)" fill="#55626D" width="15.25" height="15.698"/>
	</g>
	<g>
		<defs>
			<path id="SVGID_53_" d="M239.654,59.552h-0.647l-0.165-1.357h-4.541l-0.185,1.357h-0.627v-2.16h0.688
				c0.068-0.082,0.155-0.226,0.262-0.432s0.211-0.492,0.313-0.859c0.103-0.366,0.194-0.82,0.272-1.362s0.122-1.189,0.128-1.944
				h3.626v4.598h0.873V59.552z M237.836,57.392v-3.795h-1.828c-0.021,0.309-0.052,0.638-0.092,0.987
				c-0.042,0.35-0.098,0.694-0.17,1.033c-0.072,0.34-0.156,0.664-0.252,0.973c-0.096,0.309-0.208,0.576-0.339,0.802H237.836z"/>
		</defs>
		<use xlink:href="#SVGID_53_"  overflow="visible" fill-rule="evenodd" clip-rule="evenodd" fill="#55626D"/>
		<clipPath id="SVGID_54_">
			<use xlink:href="#SVGID_53_"  overflow="visible"/>
		</clipPath>
		<rect x="228.491" y="47.794" clip-path="url(#SVGID_54_)" fill="#55626D" width="16.164" height="16.758"/>
	</g>
	<g>
		<defs>
			<polygon id="SVGID_55_" points="244.462,55.839 241.75,55.839 241.75,58.194 240.805,58.194 240.805,52.794 241.75,52.794 
				241.75,54.995 244.462,54.995 244.462,52.794 245.408,52.794 245.408,58.194 244.462,58.194 			"/>
		</defs>
		<use xlink:href="#SVGID_55_"  overflow="visible" fill-rule="evenodd" clip-rule="evenodd" fill="#55626D"/>
		<clipPath id="SVGID_56_">
			<use xlink:href="#SVGID_55_"  overflow="visible"/>
		</clipPath>
		<rect x="235.805" y="47.794" clip-path="url(#SVGID_56_)" fill="#55626D" width="14.603" height="15.4"/>
	</g>
	<g>
		<defs>
			<path id="SVGID_57_" d="M248.161,54.861c0.219-0.034,0.422-0.057,0.611-0.066c0.188-0.011,0.358-0.016,0.509-0.016
				c0.397,0,0.731,0.041,1.001,0.124c0.271,0.082,0.488,0.195,0.652,0.339c0.165,0.145,0.281,0.313,0.35,0.509
				c0.068,0.196,0.103,0.406,0.103,0.633c0,0.651-0.199,1.127-0.595,1.425c-0.398,0.298-1.045,0.447-1.942,0.447
				c-0.288,0-0.565-0.004-0.833-0.01c-0.267-0.007-0.534-0.021-0.801-0.042v-5.41h0.946V54.861z M248.161,57.392
				c0.285,0.042,0.576,0.062,0.875,0.062c0.489,0,0.832-0.086,1.028-0.258c0.197-0.171,0.295-0.415,0.295-0.73
				c0-0.273-0.097-0.504-0.29-0.688c-0.194-0.186-0.528-0.278-1.003-0.278c-0.129,0-0.273,0.006-0.433,0.016
				c-0.16,0.011-0.317,0.033-0.473,0.067V57.392z M252.383,58.194h0.945v-5.4h-0.945V58.194z"/>
		</defs>
		<use xlink:href="#SVGID_57_"  overflow="visible" fill-rule="evenodd" clip-rule="evenodd" fill="#55626D"/>
		<clipPath id="SVGID_58_">
			<use xlink:href="#SVGID_57_"  overflow="visible"/>
		</clipPath>
		<rect x="242.215" y="47.794" clip-path="url(#SVGID_58_)" fill="#55626D" width="16.113" height="15.462"/>
	</g>
	<g>
		<defs>
			<path id="SVGID_59_" d="M259.522,57.752c-0.24,0.179-0.538,0.32-0.893,0.427c-0.357,0.106-0.744,0.159-1.162,0.159
				c-0.452,0-0.844-0.066-1.176-0.2c-0.332-0.134-0.604-0.324-0.816-0.571c-0.212-0.246-0.37-0.545-0.472-0.895
				c-0.103-0.35-0.155-0.74-0.155-1.173c0-0.926,0.228-1.634,0.683-2.124c0.456-0.49,1.104-0.735,1.947-0.735
				c0.267,0,0.534,0.029,0.801,0.088c0.267,0.058,0.507,0.168,0.719,0.329c0.212,0.161,0.385,0.382,0.519,0.663s0.2,0.648,0.2,1.101
				c0,0.11-0.003,0.236-0.01,0.381c-0.007,0.144-0.021,0.284-0.042,0.422h-3.853c0.014,0.631,0.165,1.107,0.452,1.43
				s0.777,0.483,1.469,0.483c0.288,0,0.562-0.05,0.822-0.149s0.462-0.218,0.606-0.354L259.522,57.752z M258.814,54.944
				c0.014-0.549-0.098-0.937-0.334-1.163c-0.236-0.226-0.567-0.339-0.991-0.339c-0.479,0-0.86,0.113-1.141,0.339
				c-0.281,0.227-0.445,0.614-0.493,1.163H258.814z"/>
		</defs>
		<use xlink:href="#SVGID_59_"  overflow="visible" fill-rule="evenodd" clip-rule="evenodd" fill="#55626D"/>
		<clipPath id="SVGID_60_">
			<use xlink:href="#SVGID_59_"  overflow="visible"/>
		</clipPath>
		<rect x="249.848" y="47.64" clip-path="url(#SVGID_60_)" fill="#55626D" width="14.87" height="15.698"/>
	</g>
	<g>
		<defs>
			<path id="SVGID_61_" d="M264.269,52.794h0.638l0.185,0.689h0.092c0.185-0.268,0.425-0.475,0.719-0.622s0.626-0.222,0.997-0.222
				c0.781,0,1.362,0.218,1.746,0.653s0.576,1.13,0.576,2.083c0,0.452-0.063,0.862-0.19,1.229c-0.127,0.366-0.308,0.679-0.544,0.936
				c-0.237,0.257-0.524,0.454-0.863,0.592c-0.339,0.137-0.718,0.205-1.135,0.205c-0.137,0-0.262-0.005-0.375-0.015
				c-0.113-0.011-0.217-0.028-0.313-0.052c-0.096-0.024-0.191-0.052-0.287-0.082c-0.096-0.031-0.195-0.067-0.298-0.108v2.17h-0.946
				V52.794z M266.673,53.442c-0.408,0-0.728,0.103-0.959,0.309s-0.398,0.521-0.5,0.946v2.489c0.156,0.109,0.326,0.195,0.51,0.257
				s0.418,0.093,0.704,0.093c0.551,0,0.983-0.182,1.296-0.545c0.312-0.364,0.469-0.905,0.469-1.626c0-0.582-0.116-1.049-0.347-1.398
				C267.615,53.617,267.224,53.442,266.673,53.442z"/>
		</defs>
		<use xlink:href="#SVGID_61_"  overflow="visible" fill-rule="evenodd" clip-rule="evenodd" fill="#55626D"/>
		<clipPath id="SVGID_62_">
			<use xlink:href="#SVGID_61_"  overflow="visible"/>
		</clipPath>
		<rect x="259.269" y="47.64" clip-path="url(#SVGID_62_)" fill="#55626D" width="14.952" height="17.611"/>
	</g>
	<g>
		<defs>
			<path id="SVGID_63_" d="M275.127,57.752c-0.239,0.179-0.537,0.32-0.893,0.427c-0.356,0.106-0.744,0.159-1.161,0.159
				c-0.452,0-0.844-0.066-1.176-0.2c-0.333-0.134-0.604-0.324-0.817-0.571c-0.212-0.246-0.37-0.545-0.472-0.895
				c-0.103-0.35-0.154-0.74-0.154-1.173c0-0.926,0.228-1.634,0.683-2.124c0.455-0.49,1.104-0.735,1.947-0.735
				c0.267,0,0.534,0.029,0.801,0.088c0.267,0.058,0.507,0.168,0.719,0.329c0.212,0.161,0.385,0.382,0.519,0.663s0.2,0.648,0.2,1.101
				c0,0.11-0.003,0.236-0.01,0.381c-0.007,0.144-0.021,0.284-0.042,0.422h-3.853c0.014,0.631,0.165,1.107,0.452,1.43
				s0.777,0.483,1.469,0.483c0.288,0,0.562-0.05,0.822-0.149s0.462-0.218,0.606-0.354L275.127,57.752z M274.418,54.944
				c0.014-0.549-0.098-0.937-0.334-1.163c-0.236-0.226-0.567-0.339-0.991-0.339c-0.479,0-0.86,0.113-1.141,0.339
				c-0.281,0.227-0.445,0.614-0.493,1.163H274.418z"/>
		</defs>
		<use xlink:href="#SVGID_63_"  overflow="visible" fill-rule="evenodd" clip-rule="evenodd" fill="#55626D"/>
		<clipPath id="SVGID_64_">
			<use xlink:href="#SVGID_63_"  overflow="visible"/>
		</clipPath>
		<rect x="265.453" y="47.64" clip-path="url(#SVGID_64_)" fill="#55626D" width="14.869" height="15.698"/>
	</g>
	<g>
		<defs>
			<polygon id="SVGID_65_" points="276.884,58.194 276.884,52.794 277.83,52.794 277.83,57.392 279.904,57.392 279.904,52.794 
				280.85,52.794 280.85,57.392 282.925,57.392 282.925,52.794 283.87,52.794 283.87,58.194 			"/>
		</defs>
		<use xlink:href="#SVGID_65_"  overflow="visible" fill-rule="evenodd" clip-rule="evenodd" fill="#55626D"/>
		<clipPath id="SVGID_66_">
			<use xlink:href="#SVGID_65_"  overflow="visible"/>
		</clipPath>
		<rect x="271.884" y="47.794" clip-path="url(#SVGID_66_)" fill="#55626D" width="16.985" height="15.4"/>
	</g>
	<g>
		<defs>
			<path id="SVGID_67_" d="M290.064,57.752c-0.24,0.179-0.538,0.32-0.894,0.427c-0.356,0.106-0.743,0.159-1.161,0.159
				c-0.452,0-0.844-0.066-1.176-0.2c-0.333-0.134-0.604-0.324-0.816-0.571c-0.213-0.246-0.37-0.545-0.473-0.895
				c-0.103-0.35-0.154-0.74-0.154-1.173c0-0.926,0.228-1.634,0.683-2.124s1.104-0.735,1.947-0.735c0.267,0,0.534,0.029,0.801,0.088
				c0.267,0.058,0.507,0.168,0.719,0.329s0.385,0.382,0.519,0.663c0.133,0.281,0.2,0.648,0.2,1.101c0,0.11-0.003,0.236-0.01,0.381
				c-0.007,0.144-0.021,0.284-0.042,0.422h-3.853c0.014,0.631,0.165,1.107,0.452,1.43s0.777,0.483,1.47,0.483
				c0.287,0,0.561-0.05,0.822-0.149c0.26-0.1,0.462-0.218,0.606-0.354L290.064,57.752z M289.355,54.944
				c0.014-0.549-0.098-0.937-0.334-1.163c-0.236-0.226-0.566-0.339-0.991-0.339c-0.479,0-0.859,0.113-1.141,0.339
				c-0.281,0.227-0.445,0.614-0.493,1.163H289.355z"/>
		</defs>
		<use xlink:href="#SVGID_67_"  overflow="visible" fill-rule="evenodd" clip-rule="evenodd" fill="#55626D"/>
		<clipPath id="SVGID_68_">
			<use xlink:href="#SVGID_67_"  overflow="visible"/>
		</clipPath>
		<rect x="280.39" y="47.64" clip-path="url(#SVGID_68_)" fill="#55626D" width="14.869" height="15.698"/>
	</g>
	<g>
		<defs>
			<polygon id="SVGID_69_" points="295.479,55.839 292.766,55.839 292.766,58.194 291.821,58.194 291.821,52.794 292.766,52.794 
				292.766,54.995 295.479,54.995 295.479,52.794 296.423,52.794 296.423,58.194 295.479,58.194 			"/>
		</defs>
		<use xlink:href="#SVGID_69_"  overflow="visible" fill-rule="evenodd" clip-rule="evenodd" fill="#55626D"/>
		<clipPath id="SVGID_70_">
			<use xlink:href="#SVGID_69_"  overflow="visible"/>
		</clipPath>
		<rect x="286.821" y="47.794" clip-path="url(#SVGID_70_)" fill="#55626D" width="14.603" height="15.4"/>
	</g>
	<g>
		<defs>
			<polygon id="SVGID_71_" points="301.96,55.108 302.104,54.039 301.991,54.039 301.488,55.047 298.96,58.194 298.231,58.194 
				298.231,52.794 299.177,52.794 299.177,55.982 299.104,56.929 299.218,56.929 299.69,56.014 302.166,52.794 302.906,52.794 
				302.906,58.194 301.96,58.194 			"/>
		</defs>
		<use xlink:href="#SVGID_71_"  overflow="visible" fill-rule="evenodd" clip-rule="evenodd" fill="#55626D"/>
		<clipPath id="SVGID_72_">
			<use xlink:href="#SVGID_71_"  overflow="visible"/>
		</clipPath>
		<rect x="293.231" y="47.794" clip-path="url(#SVGID_72_)" fill="#55626D" width="14.674" height="15.4"/>
	</g>
	<g>
		<defs>
			<path id="SVGID_73_" d="M307.898,56.065l-0.976,0.134l-1.531,1.995h-1.171l1.356-1.77v0.011l0.575-0.391
				c-0.479-0.056-0.858-0.225-1.135-0.51c-0.277-0.284-0.416-0.633-0.416-1.044c0-0.322,0.062-0.6,0.185-0.833
				c0.123-0.232,0.299-0.425,0.529-0.576c0.229-0.15,0.507-0.261,0.833-0.329c0.325-0.068,0.689-0.103,1.094-0.103
				c0.26,0,0.533,0.017,0.817,0.052c0.284,0.034,0.546,0.078,0.786,0.133v5.359h-0.945V56.065z M307.898,55.479v-1.943
				c-0.109-0.034-0.232-0.057-0.372-0.067c-0.139-0.01-0.259-0.016-0.361-0.016c-0.51,0-0.893,0.083-1.151,0.247
				c-0.258,0.165-0.387,0.426-0.387,0.782c0,0.343,0.151,0.6,0.453,0.771c0.302,0.171,0.697,0.25,1.186,0.236L307.898,55.479z"/>
		</defs>
		<use xlink:href="#SVGID_73_"  overflow="visible" fill-rule="evenodd" clip-rule="evenodd" fill="#55626D"/>
		<clipPath id="SVGID_74_">
			<use xlink:href="#SVGID_73_"  overflow="visible"/>
		</clipPath>
		<rect x="299.221" y="47.65" clip-path="url(#SVGID_74_)" fill="#55626D" width="14.623" height="15.544"/>
	</g>
</g>
</svg>
