<?xml version="1.0" encoding="utf-8"?>
<!-- Generator: Adobe Illustrator 16.0.0, SVG Export Plug-In . SVG Version: 6.00 Build 0)  -->
<!DOCTYPE svg PUBLIC "-//W3C//DTD SVG 1.1//EN" "http://www.w3.org/Graphics/SVG/1.1/DTD/svg11.dtd">
<svg version="1.1" id="Layer_1" xmlns="http://www.w3.org/2000/svg" xmlns:xlink="http://www.w3.org/1999/xlink" x="0px" y="0px"
	 width="130px" height="49.062px" viewBox="0 0 130 49.062" enable-background="new 0 0 130 49.062" xml:space="preserve">
<g>
	<g>
		<defs>
			<polygon id="SVGID_1_" points="14.511,0 0,14.547 14.511,29.094 29.021,14.547 			"/>
		</defs>
		<clipPath id="SVGID_2_">
			<use xlink:href="#SVGID_1_"  overflow="visible"/>
		</clipPath>
		<rect x="-3.755" y="-3.755" clip-path="url(#SVGID_2_)" fill="#EC7323" width="36.532" height="36.605"/>
	</g>
	<g>
		<defs>
			<polygon id="SVGID_3_" points="3.627,14.547 14.511,3.637 25.394,14.547 			"/>
		</defs>
		<clipPath id="SVGID_4_">
			<use xlink:href="#SVGID_3_"  overflow="visible"/>
		</clipPath>
		<rect x="-0.128" y="-0.119" clip-path="url(#SVGID_4_)" fill="#FEFEFE" width="29.277" height="18.421"/>
	</g>
	<g>
		<defs>
			<path id="SVGID_5_" d="M36.997,43.984c-1.923,0-3.847-0.935-4.78-2.154H32.16v7.231h-3.14V29.097h2.941v1.958h0.057
				c0.821-0.965,2.434-2.299,4.865-2.299c4.271,0,7.185,3.206,7.185,7.518C44.069,40.498,41.353,43.984,36.997,43.984
				 M32.132,33.635v5.36c0.763,1.248,2.121,2.495,4.243,2.495c2.715,0,4.384-2.268,4.384-5.133c0-2.808-1.613-5.104-4.384-5.104
				C33.999,31.253,32.923,32.557,32.132,33.635"/>
		</defs>
		<use xlink:href="#SVGID_5_"  overflow="visible" fill-rule="evenodd" clip-rule="evenodd" fill="#55626D"/>
		<clipPath id="SVGID_6_">
			<use xlink:href="#SVGID_5_"  overflow="visible"/>
		</clipPath>
		<rect x="25.265" y="25" clip-path="url(#SVGID_6_)" fill="#55626D" width="22.559" height="27.817"/>
	</g>
	<g>
		<defs>
			<rect id="SVGID_7_" x="46.416" y="23.453" width="3.168" height="20.192"/>
		</defs>
		<use xlink:href="#SVGID_7_"  overflow="visible" fill-rule="evenodd" clip-rule="evenodd" fill="#55626D"/>
		<clipPath id="SVGID_8_">
			<use xlink:href="#SVGID_7_"  overflow="visible"/>
		</clipPath>
		<rect x="42.661" y="19.698" clip-path="url(#SVGID_8_)" fill="#55626D" width="10.679" height="27.703"/>
	</g>
	<g>
		<defs>
			<path id="SVGID_9_" d="M61.578,43.645v-2.069H61.52c-1.018,1.19-2.433,2.41-4.526,2.41c-3.224,0-5.29-1.702-5.29-4.566
				c0-4.168,4.498-4.905,6.648-4.905c1.244,0,2.459,0.34,2.97,0.51v-0.88c0-2.014-1.273-2.978-3.479-2.978
				c-1.923,0-3.366,0.766-4.442,1.561v-2.468c0.906-0.539,2.773-1.503,4.951-1.503c3.96,0,5.998,1.872,5.998,5.929v8.96H61.578z
				 M61.323,37.009c-0.425-0.113-1.358-0.456-2.264-0.456c-1.385,0-4.186,0.371-4.186,2.753c0,1.445,1.33,2.296,2.602,2.296
				c1.273,0,3.028-0.936,3.848-1.871V37.009z"/>
		</defs>
		<use xlink:href="#SVGID_9_"  overflow="visible" fill-rule="evenodd" clip-rule="evenodd" fill="#55626D"/>
		<clipPath id="SVGID_10_">
			<use xlink:href="#SVGID_9_"  overflow="visible"/>
		</clipPath>
		<rect x="47.949" y="25.001" clip-path="url(#SVGID_10_)" fill="#55626D" width="20.157" height="22.74"/>
	</g>
	<g>
		<defs>
			<path id="SVGID_11_" d="M76.993,43.645V41.49h-0.057c-0.904,1.275-2.403,2.494-4.554,2.494c-3.764,0-5.403-2.409-5.403-5.814
				v-9.074h3.14v7.799c0,3.147,0.819,4.509,2.942,4.509c2.263,0,3.311-1.672,3.847-2.694v-9.613h3.141v14.548H76.993z"/>
		</defs>
		<use xlink:href="#SVGID_11_"  overflow="visible" fill-rule="evenodd" clip-rule="evenodd" fill="#55626D"/>
		<clipPath id="SVGID_12_">
			<use xlink:href="#SVGID_11_"  overflow="visible"/>
		</clipPath>
		<rect x="63.224" y="25.341" clip-path="url(#SVGID_12_)" fill="#55626D" width="20.581" height="22.398"/>
	</g>
	<g>
		<defs>
			<path id="SVGID_13_" d="M90.003,31.507c-2.32,0-3.394,1.361-4.017,2.468v9.67h-3.167V29.098h2.884v2.325h0.058
				c0.905-1.533,2.404-2.667,4.129-2.667c0.678,0,1.161,0.086,1.697,0.199v2.808C91.106,31.593,90.512,31.507,90.003,31.507"/>
		</defs>
		<use xlink:href="#SVGID_13_"  overflow="visible" fill-rule="evenodd" clip-rule="evenodd" fill="#55626D"/>
		<clipPath id="SVGID_14_">
			<use xlink:href="#SVGID_13_"  overflow="visible"/>
		</clipPath>
		<rect x="79.064" y="25.001" clip-path="url(#SVGID_14_)" fill="#55626D" width="16.278" height="22.4"/>
	</g>
	<g>
		<defs>
			<path id="SVGID_15_" d="M102.873,43.645V41.49h-0.057c-0.904,1.275-2.404,2.494-4.555,2.494c-3.761,0-5.402-2.409-5.402-5.814
				v-9.074h3.14v7.799c0,3.147,0.821,4.509,2.943,4.509c2.263,0,3.309-1.672,3.847-2.694v-9.613h3.14v14.548H102.873z"/>
		</defs>
		<use xlink:href="#SVGID_15_"  overflow="visible" fill-rule="evenodd" clip-rule="evenodd" fill="#55626D"/>
		<clipPath id="SVGID_16_">
			<use xlink:href="#SVGID_15_"  overflow="visible"/>
		</clipPath>
		<rect x="89.104" y="25.341" clip-path="url(#SVGID_16_)" fill="#55626D" width="20.58" height="22.398"/>
	</g>
	<g>
		<defs>
			<path id="SVGID_17_" d="M126.888,43.645v-8.791c0-1.817-0.538-3.517-2.517-3.517c-1.839,0-2.83,1.36-3.481,2.467v9.84h-3.138
				v-8.791c0-1.817-0.509-3.517-2.518-3.517c-1.924,0-3.027,1.444-3.452,2.155v10.152h-3.169V29.097h2.914v2.099h0.056
				c0.962-1.363,2.461-2.44,4.639-2.44c1.726,0,3.452,0.795,4.188,2.78h0.056c1.047-1.929,2.915-2.78,4.554-2.78
				c3.678,0,4.979,2.212,4.979,5.276v9.614H126.888z"/>
		</defs>
		<use xlink:href="#SVGID_17_"  overflow="visible" fill-rule="evenodd" clip-rule="evenodd" fill="#55626D"/>
		<clipPath id="SVGID_18_">
			<use xlink:href="#SVGID_17_"  overflow="visible"/>
		</clipPath>
		<rect x="104.858" y="25" clip-path="url(#SVGID_18_)" fill="#55626D" width="28.897" height="22.4"/>
	</g>
</g>
</svg>
