<?xml version="1.0" encoding="utf-8"?>
<!-- Generator: Adobe Illustrator 16.0.0, SVG Export Plug-In . SVG Version: 6.00 Build 0)  -->
<!DOCTYPE svg PUBLIC "-//W3C//DTD SVG 1.1//EN" "http://www.w3.org/Graphics/SVG/1.1/DTD/svg11.dtd">
<svg version="1.1" id="Layer_1" xmlns="http://www.w3.org/2000/svg" xmlns:xlink="http://www.w3.org/1999/xlink" x="0px" y="0px"
	 width="40px" height="40px" viewBox="0 0 40 40" enable-background="new 0 0 40 40" xml:space="preserve">
<g>
	<path fill="#743A1E" d="M38.617,6H18.453l-3.484-2.953C14.158,2.265,13.381,2,12.617,2H1.383C0.619,2,0,2.619,0,3.383v34.234
		C0,38.381,0.619,39,1.383,39h37.234C39.381,39,40,38.381,40,37.617V7.383C40,6.619,39.381,6,38.617,6z"/>
	<g>
		<path fill="#DD7824" d="M38.617,5H18.453l-3.484-2.953C14.158,1.265,13.381,1,12.617,1H1.383C0.619,1,0,1.619,0,2.383v34.234
			C0,37.381,0.619,38,1.383,38h37.234C39.381,38,40,37.381,40,36.617V6.383C40,5.619,39.381,5,38.617,5z"/>
		<path fill="#DD5B21" d="M40,36.617C40,37.381,39.381,38,38.617,38H1.383C0.619,38,0,37.381,0,36.617V14.383
			C0,13.619,0.619,13,1.383,13h37.234C39.381,13,40,13.619,40,14.383V36.617z"/>
		<path fill="#DD6730" d="M40,34.617C40,35.381,39.381,36,38.617,36H1.383C0.619,36,0,35.381,0,34.617V9.383
			C0,8.619,0.619,8,1.383,8h37.234C39.381,8,40,8.619,40,9.383V34.617z"/>
	</g>
</g>
<polygon fill="#743A1E" points="23.28,18.101 19.568,21.814 15.856,18.101 14,19.958 17.714,23.67 14,27.382 15.856,29.238 
	19.568,25.525 23.28,29.238 25.137,27.383 21.424,23.67 25.137,19.957 "/>
</svg>
