<?xml version="1.0" encoding="utf-8"?>
<!-- Generator: Adobe Illustrator 16.0.0, SVG Export Plug-In . SVG Version: 6.00 Build 0)  -->
<!DOCTYPE svg PUBLIC "-//W3C//DTD SVG 1.1//EN" "http://www.w3.org/Graphics/SVG/1.1/DTD/svg11.dtd">
<svg version="1.1" id="Layer_1" xmlns="http://www.w3.org/2000/svg" xmlns:xlink="http://www.w3.org/1999/xlink" x="0px" y="0px"
	 width="30px" height="30px" viewBox="0 0 30 30" enable-background="new 0 0 30 30" xml:space="preserve">
<g>
	<path fill="#9EA2A8" d="M24.312,24.137l2.48-2.48c0.195-0.195,0.195-0.512,0-0.707s-0.512-0.195-0.707,0l-2.48,2.48l-2.48-2.48
		c-0.195-0.195-0.512-0.195-0.707,0s-0.195,0.512,0,0.707l2.48,2.48l-2.48,2.481c-0.195,0.195-0.195,0.512,0,0.707
		c0.098,0.098,0.226,0.146,0.354,0.146s0.256-0.049,0.354-0.146l2.48-2.481l2.48,2.481c0.098,0.098,0.226,0.146,0.354,0.146
		s0.256-0.049,0.354-0.146c0.195-0.195,0.195-0.512,0-0.707L24.312,24.137z"/>
	<path fill="#9EA2A8" d="M22,5v15c0,0.276,0.224,0.5,0.5,0.5S23,20.276,23,20V4.5C23,4.224,22.776,4,22.5,4h-18
		C4.224,4,4,4.224,4,4.5v18C4,22.776,4.224,23,4.5,23H19c0.276,0,0.5-0.224,0.5-0.5S19.276,22,19,22h-2.985
		C16.264,20.988,18,13.818,18,10.625C18,9.728,16.514,6.119,16.042,5H19c-0.022,0.473-0.375,8.15-0.375,9.63
		c0,2.702-0.123,4.82-0.124,4.841C18.484,19.746,18.695,20,18.971,20c0.01,0,0.02,0,0.029,0c0.263,0,0.483-0.205,0.499-0.471
		c0.001-0.021,0.126-2.166,0.126-4.899c0-1.472,0.371-9.526,0.374-9.606c0-0.009-0.004-0.016-0.004-0.023H22z M11.02,5.137
		c0.02,0.07,1.98,7.02,1.98,14.051c0,0.552-1.43,1.888-2.786,2.812H8.022C8.321,21.006,10,15.311,10,12.625
		C10,11.26,8.376,6.1,8.024,5h2.984C11.009,5.045,11.006,5.092,11.02,5.137z M5,5h2.007c0,0.051,0.001,0.102,0.018,0.153
		C7.573,6.862,9,11.536,9,12.625c0,2.736-1.958,9.164-1.979,9.229C7.007,21.902,7.008,21.951,7.008,22H5V5z M15.04,5.195
		c0.963,2.273,1.96,4.926,1.96,5.43c0,3.244-1.965,11.174-1.985,11.254C15.005,21.92,15.01,21.96,15.01,22h-3.117
		C12.869,21.211,14,20.102,14,19.188C14,12.541,12.287,5.985,12.019,5H15C15,5.065,15.013,5.131,15.04,5.195z"/>
</g>
</svg>
