<?xml version="1.0" encoding="utf-8"?>
<!-- Generator: Adobe Illustrator 16.0.0, SVG Export Plug-In . SVG Version: 6.00 Build 0)  -->
<!DOCTYPE svg PUBLIC "-//W3C//DTD SVG 1.1//EN" "http://www.w3.org/Graphics/SVG/1.1/DTD/svg11.dtd">
<svg version="1.1" id="Layer_1" xmlns="http://www.w3.org/2000/svg" xmlns:xlink="http://www.w3.org/1999/xlink" x="0px" y="0px"
	 width="30px" height="30px" viewBox="0 0 30 30" enable-background="new 0 0 30 30" xml:space="preserve">
<g>
	<path fill="#9EA2A8" d="M23.96,22.303C23.881,22.119,23.7,22,23.5,22h-20c-0.2,0-0.381,0.119-0.46,0.303l-3,7
		c-0.065,0.155-0.05,0.332,0.043,0.473C0.175,29.916,0.332,30,0.5,30h26c0.168,0,0.325-0.084,0.417-0.225
		c0.093-0.141,0.108-0.317,0.043-0.473L23.96,22.303z M1.258,29l2.572-6h19.34l2.572,6H1.258z"/>
	<path fill="#9EA2A8" d="M13.333,23.75c-1.686,0-3.5,0.509-3.5,1.625S11.647,27,13.333,27s3.5-0.509,3.5-1.625
		S15.019,23.75,13.333,23.75z M13.333,26c-1.587,0-2.434-0.46-2.503-0.607c0.069-0.183,0.916-0.643,2.503-0.643
		s2.434,0.46,2.503,0.607C15.767,25.54,14.92,26,13.333,26z"/>
	<path fill="#9EA2A8" d="M28.036,4.479l-0.8-0.799c0-0.001,0-0.001,0-0.001l-0.828-0.828l-1.752-1.751
		c-0.195-0.195-0.512-0.195-0.707,0s-0.195,0.512,0,0.707l0.507,0.507l-9.966,9.965c-0.053,0.053-0.093,0.117-0.118,0.188
		l-0.896,2.545c-0.062,0.179-0.02,0.377,0.112,0.514c0.025,0.026,0.059,0.041,0.088,0.061c-0.171,0.049-0.307,0.183-0.349,0.356
		c-0.13,0.526-0.459,0.882-0.777,1.226c-0.362,0.392-0.737,0.796-0.737,1.395c0,1.103,0.897,2,2,2s2-0.897,2-2
		c0-0.971-1.356-2.531-1.628-2.834c-0.03-0.034-0.073-0.047-0.11-0.07c0.008-0.002,0.016-0.001,0.023-0.004l2.616-0.824
		c0.076-0.023,0.146-0.066,0.203-0.123l9.966-9.967l0.446,0.446c0.098,0.098,0.226,0.146,0.354,0.146s0.256-0.049,0.354-0.146
		C28.231,4.991,28.231,4.675,28.036,4.479z M14.812,18.562c0,0.552-0.448,1-1,1s-1-0.448-1-1c0-0.196,0.179-0.399,0.471-0.716
		c0.216-0.232,0.462-0.498,0.667-0.834C14.421,17.627,14.812,18.271,14.812,18.562z M16.297,13.913L14.751,14.4l0.526-1.494
		L19.184,9h2.025L16.297,13.913z M22.174,8.035C22.119,8.015,22.062,8,22,8h-1.816l4.979-4.979l0.52,0.519l0.493,0.493L22.174,8.035
		z"/>
</g>
</svg>
