<?xml version="1.0" encoding="utf-8"?>
<!-- Generator: Adobe Illustrator 16.0.0, SVG Export Plug-In . SVG Version: 6.00 Build 0)  -->
<!DOCTYPE svg PUBLIC "-//W3C//DTD SVG 1.1//EN" "http://www.w3.org/Graphics/SVG/1.1/DTD/svg11.dtd">
<svg version="1.1" id="Layer_1" xmlns="http://www.w3.org/2000/svg" xmlns:xlink="http://www.w3.org/1999/xlink" x="0px" y="0px"
	 width="30px" height="30px" viewBox="0 0 30 30" enable-background="new 0 0 30 30" xml:space="preserve">
<path fill="#9EA2A8" d="M26.601,12.171l-5.44-5.038C21.067,7.048,20.946,7,20.82,7H9.94c-0.126,0-0.247,0.048-0.34,0.133
	l-5.44,5.038C4.062,12.262,4.005,12.388,4,12.521c-0.004,0.134,0.045,0.263,0.137,0.36L14.5,23.844
	c0.095,0.1,0.226,0.156,0.363,0.156h1.034c0.138,0,0.269-0.057,0.363-0.156l10.363-10.962c0.092-0.098,0.141-0.227,0.137-0.36
	C26.756,12.388,26.698,12.262,26.601,12.171z M15.984,8h4.078l-1.504,3.501L15.984,8z M17.687,12h-5.358l2.679-3.644L17.687,12z
	 M11.545,11.377L10.6,8h3.428L11.545,11.377z M10.681,12H5.816L9.68,8.423L10.681,12z M10.975,13l2.741,8.559L5.625,13H10.975z
	 M12.025,13h6.007l-2.523,10h-0.28L12.025,13z M19.062,13h6.074l-8.286,8.764L19.062,13z M19.432,12L21,8.348L24.944,12H19.432z"/>
</svg>
