<?xml version="1.0" encoding="utf-8"?>
<!-- Generator: Adobe Illustrator 16.0.0, SVG Export Plug-In . SVG Version: 6.00 Build 0)  -->
<!DOCTYPE svg PUBLIC "-//W3C//DTD SVG 1.1//EN" "http://www.w3.org/Graphics/SVG/1.1/DTD/svg11.dtd">
<svg version="1.1" id="Layer_1" xmlns="http://www.w3.org/2000/svg" xmlns:xlink="http://www.w3.org/1999/xlink" x="0px" y="0px"
	 width="30px" height="30px" viewBox="0 0 30 30" enable-background="new 0 0 30 30" xml:space="preserve">
<path fill="#55626D" d="M16.174,6.769c0-0.182-0.18-0.271-0.538-0.271c-0.05,0-0.472-0.003-1.271-0.012
	c-0.799-0.009-1.39-0.009-1.771,0c-0.386,0.009-0.877,0.041-1.479,0.097c-0.604,0.057-1.083,0.142-1.442,0.259
	C8.728,7.15,7.974,7.657,7.413,8.361C6.852,9.065,6.57,9.896,6.57,10.859c0,1.144,0.358,2.066,1.075,2.769s1.645,1.048,2.784,1.031
	h0.149c0,0.39,0.016,0.677,0.047,0.856c0.034,0.18,0.075,0.274,0.125,0.281c0.049,0.01,0.107,0.051,0.181,0.121
	c0.074,0.075,0.142,0.193,0.208,0.357c-0.896,0-1.732,0.098-2.505,0.293c-0.771,0.195-1.472,0.589-2.088,1.177
	c-0.62,0.589-0.927,1.331-0.927,2.229c0,1.258,0.498,2.193,1.5,2.807c1.004,0.611,2.17,0.921,3.506,0.921
	c1.499,0,2.801-0.376,3.898-1.116c1.1-0.744,1.65-1.834,1.65-3.273c0-0.619-0.159-1.215-0.479-1.787
	c-0.315-0.57-0.669-1.021-1.062-1.349c-0.392-0.325-0.743-0.64-1.062-0.944c-0.317-0.3-0.478-0.533-0.478-0.697
	c0-0.18,0.123-0.388,0.367-0.624c0.242-0.237,0.518-0.475,0.818-0.712c0.302-0.234,0.574-0.616,0.817-1.139
	c0.246-0.522,0.366-1.128,0.366-1.812c0-1.243-0.357-2.117-1.073-2.623c0.015,0,0.142-0.013,0.378-0.039
	c0.237-0.022,0.404-0.047,0.5-0.07c0.099-0.026,0.237-0.066,0.415-0.124c0.18-0.056,0.307-0.137,0.381-0.245
	C16.136,7.04,16.174,6.913,16.174,6.769z M14.219,19.384c0,0.724-0.352,1.3-1.051,1.742c-0.703,0.44-1.434,0.66-2.198,0.66
	c-0.767,0-1.465-0.196-2.092-0.589C8.25,20.807,7.94,20.249,7.94,19.532c0-0.783,0.332-1.371,1-1.765
	c0.667-0.392,1.419-0.59,2.25-0.59c0.747,0,1.441,0.194,2.076,0.577C13.9,18.143,14.219,18.684,14.219,19.384z M12.875,10.931
	c0,0.575-0.127,1.063-0.379,1.471c-0.254,0.409-0.648,0.613-1.186,0.613c-0.703,0-1.26-0.371-1.674-1.114
	c-0.416-0.745-0.623-1.49-0.623-2.243c0-0.571,0.127-1.062,0.379-1.47c0.252-0.407,0.646-0.613,1.186-0.613
	c0.697,0,1.258,0.373,1.672,1.114C12.666,9.434,12.875,10.181,12.875,10.931z M21.426,10.762h2.955V9.289h-2.955V6.3h-1.467v2.989
	h-2.98v1.473h2.98v2.964h1.467V10.762z"/>
</svg>
