<?xml version="1.0" encoding="utf-8"?>
<!-- Generator: Adobe Illustrator 16.0.0, SVG Export Plug-In . SVG Version: 6.00 Build 0)  -->
<!DOCTYPE svg PUBLIC "-//W3C//DTD SVG 1.1//EN" "http://www.w3.org/Graphics/SVG/1.1/DTD/svg11.dtd">
<svg version="1.1" id="Layer_1" xmlns="http://www.w3.org/2000/svg" xmlns:xlink="http://www.w3.org/1999/xlink" x="0px" y="0px"
	 width="30px" height="30px" viewBox="0 0 30 30" enable-background="new 0 0 30 30" xml:space="preserve">
<path fill-rule="evenodd" clip-rule="evenodd" fill="#FFFFFF" d="M4.575,10.51V9.938C4.716,9.53,5.003,9.416,5.423,9.436
	c0.651,0.033,1.312,0.081,1.953-0.008c0.982-0.137,1.523,0.343,1.917,1.143c0.118,0.245,0.251,0.482,0.389,0.716
	c0.422,0.714,0.833,1.434,1.277,2.133c0.246,0.39,0.527,0.761,0.833,1.104c0.102,0.116,0.336,0.161,0.5,0.149
	c0.062-0.005,0.152-0.262,0.154-0.404c0.014-1.103,0-2.205,0.004-3.307c0.003-0.375-0.141-0.575-0.535-0.618
	c-0.41-0.044-0.551-0.269-0.49-0.679c0.062-0.419,0.389-0.711,0.904-0.72c1.138-0.019,2.28-0.031,3.418,0.01
	c0.898,0.034,1.175,0.36,1.181,1.256c0.009,1.334-0.002,2.668,0.015,4.001c0.002,0.17,0.074,0.42,0.191,0.481
	c0.109,0.057,0.351-0.054,0.486-0.155c0.572-0.427,0.916-1.026,1.199-1.668c0.424-0.956,0.839-1.915,1.277-2.866
	c0.112-0.245,0.203-0.559,0.57-0.559c1.288,0,2.578-0.01,3.868,0.01c0.511,0.008,0.858,0.363,0.798,0.871
	c-0.051,0.418-0.184,0.854-0.391,1.218c-0.287,0.504-0.678,0.948-1.025,1.418c-0.555,0.754-1.107,1.512-1.664,2.264
	c-0.262,0.348-0.237,0.636,0.064,0.972c1.051,1.168,2.073,2.358,3.107,3.541v0.571c-0.308,0.605-0.811,0.786-1.469,0.759
	c-0.92-0.039-1.845,0.013-2.765-0.021c-0.261-0.009-0.563-0.117-0.762-0.285c-0.524-0.446-1.006-0.949-1.502-1.432
	c-0.351-0.34-0.688-0.693-1.048-1.022c-0.41-0.375-0.742-0.267-0.873,0.28c-0.05,0.208-0.037,0.43-0.064,0.645
	c-0.053,0.43-0.08,0.866-0.176,1.287c-0.084,0.364-0.346,0.555-0.751,0.545c-0.867-0.02-1.734-0.004-2.603-0.028
	c-0.221-0.006-0.474-0.056-0.656-0.175c-0.666-0.435-1.401-0.818-1.947-1.381C8.248,16.835,6.058,13.916,4.575,10.51"/>
</svg>
