<?xml version="1.0" encoding="utf-8"?>
<!-- Generator: Adobe Illustrator 16.0.0, SVG Export Plug-In . SVG Version: 6.00 Build 0)  -->
<!DOCTYPE svg PUBLIC "-//W3C//DTD SVG 1.1//EN" "http://www.w3.org/Graphics/SVG/1.1/DTD/svg11.dtd">
<svg version="1.1" id="Layer_1" xmlns="http://www.w3.org/2000/svg" xmlns:xlink="http://www.w3.org/1999/xlink" x="0px" y="0px"
	 width="30px" height="30px" viewBox="0 0 30 30" enable-background="new 0 0 30 30" xml:space="preserve">
<g>
	<path fill="#9EA2A8" d="M14.881,6.748c2.65,0,2.965,0.012,4.01,0.058c0.968,0.044,1.493,0.207,1.843,0.341
		c0.463,0.181,0.794,0.396,1.14,0.744c0.347,0.347,0.562,0.676,0.743,1.14c0.136,0.349,0.297,0.874,0.341,1.842
		c0.048,1.046,0.058,1.359,0.058,4.009s-0.01,2.962-0.058,4.009c-0.044,0.967-0.205,1.49-0.341,1.842
		c-0.181,0.463-0.396,0.793-0.743,1.141c-0.346,0.348-0.677,0.561-1.14,0.742c-0.35,0.135-0.875,0.297-1.843,0.342
		c-1.045,0.047-1.36,0.057-4.01,0.057c-2.649,0-2.962-0.01-4.008-0.057c-0.966-0.045-1.492-0.207-1.842-0.342
		c-0.463-0.182-0.793-0.395-1.141-0.742c-0.347-0.348-0.562-0.678-0.742-1.141c-0.137-0.352-0.298-0.875-0.342-1.842
		c-0.047-1.047-0.058-1.359-0.058-4.009s0.011-2.963,0.058-4.009C6.85,9.905,7.012,9.379,7.148,9.031
		c0.18-0.464,0.395-0.793,0.742-1.14c0.348-0.348,0.678-0.562,1.141-0.744c0.35-0.134,0.876-0.297,1.842-0.341
		C11.919,6.76,12.232,6.748,14.881,6.748 M14.881,4.96c-2.693,0-3.032,0.012-4.089,0.06c-1.057,0.049-1.777,0.216-2.41,0.46
		C7.731,5.736,7.177,6.073,6.626,6.626C6.075,7.177,5.736,7.73,5.482,8.383c-0.246,0.63-0.413,1.351-0.46,2.407
		c-0.049,1.059-0.061,1.397-0.061,4.092c0,2.695,0.012,3.033,0.061,4.089c0.048,1.057,0.215,1.777,0.46,2.41
		c0.254,0.652,0.593,1.205,1.144,1.758c0.551,0.551,1.105,0.889,1.757,1.143c0.632,0.246,1.353,0.414,2.41,0.461
		c1.057,0.051,1.396,0.061,4.089,0.061c2.696,0,3.034-0.01,4.092-0.061c1.056-0.047,1.776-0.215,2.407-0.461
		c0.653-0.254,1.206-0.592,1.758-1.143c0.551-0.553,0.892-1.105,1.145-1.758c0.245-0.633,0.412-1.354,0.46-2.41
		c0.049-1.057,0.061-1.395,0.061-4.089c0-2.694-0.012-3.033-0.061-4.092c-0.048-1.056-0.215-1.777-0.46-2.407
		c-0.253-0.653-0.594-1.206-1.145-1.757c-0.552-0.553-1.104-0.89-1.758-1.145c-0.631-0.245-1.352-0.412-2.407-0.46
		C17.915,4.972,17.577,4.96,14.881,4.96L14.881,4.96z"/>
	<path fill="#9EA2A8" d="M14.881,9.787c-2.814,0-5.095,2.281-5.095,5.095s2.281,5.093,5.095,5.093c2.815,0,5.096-2.279,5.096-5.093
		S17.696,9.787,14.881,9.787z M14.881,18.188c-1.826,0-3.307-1.48-3.307-3.306c0-1.828,1.48-3.308,3.307-3.308
		c1.829,0,3.308,1.48,3.308,3.308C18.189,16.708,16.71,18.188,14.881,18.188z"/>
	<circle fill="#9EA2A8" cx="20.179" cy="9.586" r="1.191"/>
</g>
</svg>
